{
  "Chromium Android ARM 32-bit Goma RBE Staging": {
    "gn_args": {
      "ffmpeg_branding": "Chrome",
      "is_component_build": false,
      "is_debug": false,
      "proprietary_codecs": true,
      "strip_debug_info": true,
      "symbol_level": 1,
      "target_os": "android",
      "use_goma": true
    }
  },
  "Chromium Android ARM 32-bit Goma RBE ToT": {
    "gn_args": {
      "ffmpeg_branding": "Chrome",
      "is_component_build": false,
      "is_debug": false,
      "proprietary_codecs": true,
      "strip_debug_info": true,
      "symbol_level": 1,
      "target_os": "android",
      "use_goma": true
    }
  },
  "Chromium Android ARM 32-bit Goma RBE ToT (ATS)": {
    "gn_args": {
      "ffmpeg_branding": "Chrome",
      "is_component_build": false,
      "is_debug": false,
      "proprietary_codecs": true,
      "strip_debug_info": true,
      "symbol_level": 1,
      "target_os": "android",
      "use_goma": true
    }
  },
  "Chromium Linux Goma RBE Staging": {
    "gn_args": {
      "is_component_build": false,
      "is_debug": false,
      "use_goma": true
    }
  },
  "Chromium Linux Goma RBE Staging (clobber)": {
    "gn_args": {
      "is_component_build": false,
      "is_debug": false,
      "use_goma": true
    }
  },
  "Chromium Linux Goma RBE Staging (dbg)": {
    "gn_args": {
      "is_component_build": true,
      "is_debug": true,
      "symbol_level": 1,
      "use_goma": true
    }
  },
  "Chromium Linux Goma RBE Staging (dbg) (clobber)": {
    "gn_args": {
      "is_component_build": true,
      "is_debug": true,
      "symbol_level": 1,
      "use_goma": true
    }
  },
  "Chromium Linux Goma RBE ToT": {
    "gn_args": {
      "is_component_build": false,
      "is_debug": false,
      "use_goma": true
    }
  },
  "Chromium Linux Goma RBE ToT (ATS)": {
    "gn_args": {
      "is_component_build": false,
      "is_debug": false,
      "use_goma": true
    }
  },
  "Chromium Mac Goma RBE Staging": {
    "gn_args": {
      "is_component_build": false,
      "is_debug": false,
      "use_goma": true
    }
  },
  "Chromium Mac Goma RBE Staging (clobber)": {
    "gn_args": {
      "is_component_build": false,
      "is_debug": false,
      "use_goma": true
    }
  },
  "Chromium Mac Goma RBE Staging (dbg)": {
    "gn_args": {
      "is_component_build": true,
      "is_debug": true,
      "symbol_level": 1,
      "use_goma": true
    }
  },
  "Chromium Mac Goma RBE ToT": {
    "gn_args": {
      "is_component_build": false,
      "is_debug": false,
      "use_goma": true
    }
  },
  "Chromium Win Goma RBE Staging": {
    "gn_args": {
      "is_component_build": false,
      "is_debug": false,
      "symbol_level": 1,
      "target_cpu": "x86",
      "use_goma": true
    }
  },
  "Chromium Win Goma RBE Staging (clobber)": {
    "gn_args": {
      "is_component_build": false,
      "is_debug": false,
      "symbol_level": 1,
      "target_cpu": "x86",
      "use_goma": true
    }
  },
  "Chromium Win Goma RBE ToT": {
    "gn_args": {
      "is_component_build": false,
      "is_debug": false,
      "symbol_level": 1,
      "target_cpu": "x86",
      "use_goma": true
    }
  },
  "Chromium iOS Goma RBE ToT": {
    "gn_args": {
      "ios_code_signing_identity_description": "Apple Development",
      "ios_enable_code_signing": false,
      "ios_set_attributes_for_xcode_project_generation": false,
      "is_component_build": false,
      "is_debug": false,
      "symbol_level": 0,
      "target_cpu": "arm64",
      "target_environment": "device",
      "target_os": "ios",
      "use_goma": true
    }
  },
  "chromeos-amd64-generic-rel-goma-rbe-staging": {
    "args_file": "//build/args/chromeos/amd64-generic.gni",
    "gn_args": {
      "is_chromeos_device": true,
      "ozone_platform_headless": true,
      "use_goma": true
    }
  },
  "chromeos-amd64-generic-rel-goma-rbe-tot": {
    "args_file": "//build/args/chromeos/amd64-generic.gni",
    "gn_args": {
      "is_chromeos_device": true,
      "ozone_platform_headless": true,
      "use_goma": true
    }
  }
}