{
  "schema": "pedal_concepts_runtime",
  "schema_version": 2,
  "data_version": 15756354,
  "tokenize_each_character": false,
  "dictionary": [
    "chrome",
    "google",
    "ارتقا",
    "اطلاعات",
    "اعتباری",
    "انجام",
    "ایجاد",
    "این",
    "باز",
    "برای",
    "برداشتن",
    "برگه",
    "به",
    "به‌روزرسانی",
    "ترجمه",
    "تغییر",
    "حافظه",
    "حالت",
    "حذف",
    "خصوصی",
    "داخل",
    "دادن",
    "داده",
    "در",
    "درون",
    "ذخیره",
    "راه‌اندازی",
    "روش‌های",
    "زبان",
    "سابقه",
    "شروع",
    "صفحه",
    "مال",
    "محو",
    "مدیر",
    "مدیریت",
    "مرور",
    "مرورگر",
    "مشاهده",
    "من",
    "ناشناس",
    "نصب",
    "نمایش",
    "وارد",
    "ویرایش",
    "پاک",
    "پرداخت",
    "پرداخت‌ها",
    "پنجره",
    "پنهان",
    "چگونه",
    "کاربری",
    "کارت",
    "کارت‌",
    "کارت‌ها",
    "کارت‌های",
    "کردن",
    "کوکی‌ها",
    "گذرواژه‌",
    "گذرواژه‌ها",
    "یک",
    "一時的踏板placeholder"
  ],
  "pedals": [
    {
      "id": 1,
      "groups": [
        {
          "required": false,
          "single": true,
          "synonyms": [
            [
              36,
              56
            ],
            [
              1,
              0
            ],
            [
              37
            ],
            [
              0
            ]
          ]
        },
        {
          "required": true,
          "single": true,
          "synonyms": [
            [
              18,
              56
            ],
            [
              33,
              56
            ],
            [
              45,
              56
            ],
            [
              10
            ]
          ]
        },
        {
          "required": true,
          "single": true,
          "synonyms": [
            [
              16,
              49
            ],
            [
              57
            ],
            [
              3
            ],
            [
              29
            ],
            [
              22
            ]
          ]
        }
      ]
    },
    {
      "id": 2,
      "groups": [
        {
          "required": false,
          "single": true,
          "synonyms": [
            [
              1,
              0
            ],
            [
              37
            ],
            [
              0
            ]
          ]
        },
        {
          "required": true,
          "single": true,
          "synonyms": [
            [
              13,
              56
            ],
            [
              35,
              56
            ],
            [
              38,
              56
            ],
            [
              44,
              56
            ],
            [
              15,
              21
            ],
            [
              25,
              56
            ],
            [
              42
            ],
            [
              34
            ]
          ]
        },
        {
          "required": true,
          "single": true,
          "synonyms": [
            [
              3,
              51
            ],
            [
              59
            ],
            [
              58
            ]
          ]
        }
      ]
    },
    {
      "id": 3,
      "groups": [
        {
          "required": false,
          "single": true,
          "synonyms": [
            [
              1,
              0
            ],
            [
              37
            ],
            [
              0
            ]
          ]
        },
        {
          "required": true,
          "single": true,
          "synonyms": [
            [
              13,
              56
            ],
            [
              35,
              56
            ],
            [
              44,
              56
            ],
            [
              15,
              21
            ],
            [
              25,
              56
            ]
          ]
        },
        {
          "required": true,
          "single": true,
          "synonyms": [
            [
              3,
              52,
              4
            ],
            [
              55,
              4
            ],
            [
              27,
              46
            ],
            [
              53,
              4
            ],
            [
              3,
              52
            ],
            [
              47
            ],
            [
              54
            ],
            [
              46
            ]
          ]
        }
      ]
    },
    {
      "id": 4,
      "groups": [
        {
          "required": false,
          "single": true,
          "synonyms": [
            [
              1,
              0
            ],
            [
              37
            ],
            [
              0
            ]
          ]
        },
        {
          "required": false,
          "single": true,
          "synonyms": [
            [
              6,
              56
            ],
            [
              30,
              56
            ],
            [
              43,
              56
            ],
            [
              8,
              56
            ],
            [
              26
            ]
          ]
        },
        {
          "required": true,
          "single": true,
          "synonyms": [
            [
              48,
              40
            ],
            [
              11,
              40
            ],
            [
              17,
              40
            ],
            [
              48,
              19
            ],
            [
              11,
              19
            ],
            [
              17,
              19
            ],
            [
              40
            ]
          ]
        }
      ]
    },
    {
      "id": 5,
      "groups": [
        {
          "required": false,
          "single": true,
          "synonyms": [
            [
              1,
              0
            ],
            [
              37
            ],
            [
              0
            ]
          ]
        },
        {
          "required": true,
          "single": true,
          "synonyms": [
            [
              14,
              56
            ],
            [
              15,
              28
            ]
          ]
        },
        {
          "required": true,
          "single": true,
          "synonyms": [
            [
              7,
              31
            ],
            [
              31
            ],
            [
              7
            ]
          ]
        }
      ]
    },
    {
      "id": 6,
      "groups": [
        {
          "required": true,
          "single": true,
          "synonyms": [
            [
              1,
              0
            ],
            [
              37
            ],
            [
              0
            ]
          ]
        },
        {
          "required": true,
          "single": true,
          "synonyms": [
            [
              13,
              56
            ],
            [
              2,
              21
            ],
            [
              41,
              56
            ]
          ]
        }
      ]
    }
  ],
  "ignore_group": {
    "required": false,
    "single": false,
    "synonyms": [
      [
        5,
        21
      ],
      [
        32,
        39
      ],
      [
        50
      ],
      [
        20
      ],
      [
        24
      ],
      [
        9
      ],
      [
        60
      ],
      [
        23
      ],
      [
        12
      ]
    ]
  },
  "max_tokens": 32
}