{
  "schema": "pedal_concepts_runtime",
  "schema_version": 2,
  "data_version": 15756354,
  "tokenize_each_character": false,
  "dictionary": [
    "abrir",
    "actualización",
    "actualizar",
    "administrador",
    "administrar",
    "borrar",
    "caché",
    "cambiar",
    "chrome",
    "como",
    "contraseña",
    "contraseñas",
    "cookies",
    "crear",
    "credenciales",
    "crédito",
    "datos",
    "de",
    "dentro",
    "editar",
    "ejecutar",
    "el",
    "eliminar",
    "en",
    "entrar",
    "esta",
    "esto",
    "formas",
    "google",
    "guardar",
    "hacer",
    "historial",
    "idioma",
    "incognito",
    "incógnito",
    "info",
    "información",
    "iniciar",
    "instalar",
    "la",
    "mi",
    "modo",
    "mostrar",
    "navegador",
    "navegar",
    "pago",
    "pagos",
    "para",
    "pestaña",
    "privada",
    "privado",
    "página",
    "quitar",
    "sacar",
    "suprimir",
    "tarjeta",
    "tarjetas",
    "traducir",
    "un",
    "ventana",
    "ver",
    "yo",
    "一時的踏板placeholder"
  ],
  "pedals": [
    {
      "id": 1,
      "groups": [
        {
          "required": false,
          "single": true,
          "synonyms": [
            [
              28,
              8
            ],
            [
              43
            ],
            [
              44
            ],
            [
              8
            ]
          ]
        },
        {
          "required": true,
          "single": true,
          "synonyms": [
            [
              22
            ],
            [
              54
            ],
            [
              5
            ],
            [
              52
            ],
            [
              53
            ]
          ]
        },
        {
          "required": true,
          "single": true,
          "synonyms": [
            [
              36
            ],
            [
              31
            ],
            [
              12
            ],
            [
              6
            ],
            [
              16
            ],
            [
              35
            ]
          ]
        }
      ]
    },
    {
      "id": 2,
      "groups": [
        {
          "required": false,
          "single": true,
          "synonyms": [
            [
              28,
              8
            ],
            [
              43
            ],
            [
              8
            ]
          ]
        },
        {
          "required": true,
          "single": true,
          "synonyms": [
            [
              3
            ],
            [
              4
            ],
            [
              2
            ],
            [
              7
            ],
            [
              29
            ],
            [
              42
            ],
            [
              19
            ],
            [
              60
            ]
          ]
        },
        {
          "required": true,
          "single": true,
          "synonyms": [
            [
              11
            ],
            [
              14
            ],
            [
              10
            ]
          ]
        }
      ]
    },
    {
      "id": 3,
      "groups": [
        {
          "required": false,
          "single": true,
          "synonyms": [
            [
              28,
              8
            ],
            [
              43
            ],
            [
              8
            ]
          ]
        },
        {
          "required": true,
          "single": true,
          "synonyms": [
            [
              4
            ],
            [
              2
            ],
            [
              7
            ],
            [
              29
            ],
            [
              19
            ]
          ]
        },
        {
          "required": true,
          "single": true,
          "synonyms": [
            [
              36,
              17,
              39,
              55,
              17,
              15
            ],
            [
              36,
              17,
              39,
              55
            ],
            [
              56,
              17,
              15
            ],
            [
              55,
              17,
              15
            ],
            [
              27,
              17,
              45
            ],
            [
              56
            ],
            [
              46
            ],
            [
              45
            ]
          ]
        }
      ]
    },
    {
      "id": 4,
      "groups": [
        {
          "required": false,
          "single": true,
          "synonyms": [
            [
              28,
              8
            ],
            [
              43
            ],
            [
              8
            ]
          ]
        },
        {
          "required": false,
          "single": true,
          "synonyms": [
            [
              20
            ],
            [
              37
            ],
            [
              24
            ],
            [
              0
            ],
            [
              13
            ]
          ]
        },
        {
          "required": true,
          "single": true,
          "synonyms": [
            [
              48,
              17,
              34
            ],
            [
              59,
              17,
              34
            ],
            [
              41,
              17,
              34
            ],
            [
              48,
              49
            ],
            [
              59,
              49
            ],
            [
              41,
              50
            ],
            [
              34
            ],
            [
              33
            ]
          ]
        }
      ]
    },
    {
      "id": 5,
      "groups": [
        {
          "required": false,
          "single": true,
          "synonyms": [
            [
              28,
              8
            ],
            [
              43
            ],
            [
              8
            ]
          ]
        },
        {
          "required": true,
          "single": true,
          "synonyms": [
            [
              7,
              32
            ],
            [
              57
            ]
          ]
        },
        {
          "required": true,
          "single": true,
          "synonyms": [
            [
              25,
              51
            ],
            [
              51
            ],
            [
              26
            ]
          ]
        }
      ]
    },
    {
      "id": 6,
      "groups": [
        {
          "required": true,
          "single": true,
          "synonyms": [
            [
              28,
              8
            ],
            [
              43
            ],
            [
              8
            ]
          ]
        },
        {
          "required": true,
          "single": true,
          "synonyms": [
            [
              1
            ],
            [
              2
            ],
            [
              38
            ]
          ]
        }
      ]
    }
  ],
  "ignore_group": {
    "required": false,
    "single": false,
    "synonyms": [
      [
        18,
        17
      ],
      [
        30
      ],
      [
        47
      ],
      [
        9
      ],
      [
        23
      ],
      [
        21
      ],
      [
        58
      ],
      [
        40
      ],
      [
        61
      ]
    ]
  },
  "max_tokens": 32
}