{
  "schema": "pedal_concepts_runtime",
  "schema_version": 2,
  "data_version": 15756354,
  "tokenize_each_character": false,
  "dictionary": [
    "adgangskode",
    "adgangskoder",
    "administrator",
    "administrer",
    "anvend",
    "betaling",
    "betalinger",
    "betalingskort",
    "betalingskortoplysnigner",
    "betalingsmetoder",
    "browser",
    "browsercookies",
    "browserdata",
    "browserhistorik",
    "browseroplysninger",
    "browsing",
    "brug",
    "cache",
    "chrome",
    "cookies",
    "data",
    "denne",
    "dette",
    "en",
    "et",
    "fane",
    "fjern",
    "for",
    "gem",
    "google",
    "historik",
    "i",
    "inkognito",
    "inkognitofane",
    "inkognitotilstand",
    "inkognitovindue",
    "installer",
    "jeg",
    "kort",
    "kortoplysninger",
    "kreditkort",
    "kreditkortoplysninger",
    "loginoplysninger",
    "min",
    "mine",
    "mit",
    "opdater",
    "opgrader",
    "oplysninger",
    "opret",
    "oversæt",
    "privat",
    "på",
    "rediger",
    "ryd",
    "se",
    "side",
    "siden",
    "skift",
    "slet",
    "sprog",
    "start",
    "til",
    "tilstand",
    "vindue",
    "vis",
    "åbn",
    "一時的踏板placeholder"
  ],
  "pedals": [
    {
      "id": 1,
      "groups": [
        {
          "required": false,
          "single": true,
          "synonyms": [
            [
              29,
              18
            ],
            [
              15
            ],
            [
              10
            ],
            [
              18
            ]
          ]
        },
        {
          "required": true,
          "single": true,
          "synonyms": [
            [
              26
            ],
            [
              59
            ],
            [
              54
            ]
          ]
        },
        {
          "required": true,
          "single": true,
          "synonyms": [
            [
              14
            ],
            [
              13
            ],
            [
              11
            ],
            [
              12
            ],
            [
              48
            ],
            [
              30
            ],
            [
              19
            ],
            [
              17
            ],
            [
              20
            ]
          ]
        }
      ]
    },
    {
      "id": 2,
      "groups": [
        {
          "required": false,
          "single": true,
          "synonyms": [
            [
              29,
              18
            ],
            [
              10
            ],
            [
              18
            ]
          ]
        },
        {
          "required": true,
          "single": true,
          "synonyms": [
            [
              2
            ],
            [
              3
            ],
            [
              46
            ],
            [
              53
            ],
            [
              58
            ],
            [
              28
            ],
            [
              65
            ],
            [
              55
            ]
          ]
        },
        {
          "required": true,
          "single": true,
          "synonyms": [
            [
              42
            ],
            [
              1
            ],
            [
              0
            ]
          ]
        }
      ]
    },
    {
      "id": 3,
      "groups": [
        {
          "required": false,
          "single": true,
          "synonyms": [
            [
              29,
              18
            ],
            [
              10
            ],
            [
              18
            ]
          ]
        },
        {
          "required": true,
          "single": true,
          "synonyms": [
            [
              3
            ],
            [
              46
            ],
            [
              53
            ],
            [
              58
            ],
            [
              28
            ]
          ]
        },
        {
          "required": false,
          "single": true,
          "synonyms": [
            [
              8
            ],
            [
              41
            ],
            [
              9
            ],
            [
              39
            ],
            [
              7
            ],
            [
              6
            ],
            [
              40
            ],
            [
              5
            ],
            [
              38
            ]
          ]
        }
      ]
    },
    {
      "id": 4,
      "groups": [
        {
          "required": false,
          "single": true,
          "synonyms": [
            [
              29,
              18
            ],
            [
              10
            ],
            [
              18
            ]
          ]
        },
        {
          "required": false,
          "single": true,
          "synonyms": [
            [
              4
            ],
            [
              49
            ],
            [
              61
            ],
            [
              16
            ],
            [
              66
            ]
          ]
        },
        {
          "required": true,
          "single": true,
          "synonyms": [
            [
              51,
              63
            ],
            [
              51,
              64
            ],
            [
              51,
              25
            ],
            [
              34
            ],
            [
              35
            ],
            [
              33
            ],
            [
              32
            ]
          ]
        }
      ]
    },
    {
      "id": 5,
      "groups": [
        {
          "required": false,
          "single": true,
          "synonyms": [
            [
              29,
              18
            ],
            [
              10
            ],
            [
              18
            ]
          ]
        },
        {
          "required": true,
          "single": true,
          "synonyms": [
            [
              58,
              60
            ],
            [
              50
            ]
          ]
        },
        {
          "required": true,
          "single": true,
          "synonyms": [
            [
              21,
              56
            ],
            [
              22
            ],
            [
              57
            ],
            [
              56
            ]
          ]
        }
      ]
    },
    {
      "id": 6,
      "groups": [
        {
          "required": true,
          "single": true,
          "synonyms": [
            [
              29,
              18
            ],
            [
              10
            ],
            [
              18
            ]
          ]
        },
        {
          "required": true,
          "single": true,
          "synonyms": [
            [
              36
            ],
            [
              47
            ],
            [
              46
            ]
          ]
        }
      ]
    }
  ],
  "ignore_group": {
    "required": false,
    "single": false,
    "synonyms": [
      [
        44
      ],
      [
        27
      ],
      [
        62
      ],
      [
        43
      ],
      [
        45
      ],
      [
        52
      ],
      [
        37
      ],
      [
        23
      ],
      [
        24
      ],
      [
        31
      ]
    ]
  },
  "max_tokens": 32
}