{
  "schema": "pedal_concepts_runtime",
  "schema_version": 2,
  "data_version": 15756354,
  "tokenize_each_character": false,
  "dictionary": [
    "chrome",
    "cookie",
    "google",
    "一個",
    "一時的踏板placeholder",
    "上",
    "之中",
    "之內",
    "付款",
    "付款方式",
    "信用卡",
    "信用卡資訊",
    "做",
    "儲存",
    "刪除",
    "到",
    "升級",
    "卡片",
    "卡片資訊",
    "啟動",
    "如何",
    "安裝",
    "密碼",
    "建立",
    "快取",
    "憑證",
    "我",
    "我的",
    "抹除",
    "更新",
    "查看",
    "歷史記錄",
    "清除",
    "瀏覽",
    "瀏覽器",
    "無痕分頁",
    "無痕式視窗",
    "無痕模式",
    "私密分頁",
    "私密瀏覽模式",
    "私密瀏覽視窗",
    "移除",
    "管理",
    "管理員",
    "編輯",
    "翻譯",
    "變更",
    "變更語言",
    "資料",
    "資訊",
    "輸入",
    "這個",
    "這個頁面",
    "適用於",
    "開啟",
    "頁面",
    "顯示"
  ],
  "pedals": [
    {
      "id": 1,
      "groups": [
        {
          "required": false,
          "single": true,
          "synonyms": [
            [
              2,
              0
            ],
            [
              34
            ],
            [
              0
            ],
            [
              33
            ]
          ]
        },
        {
          "required": true,
          "single": true,
          "synonyms": [
            [
              14
            ],
            [
              28
            ],
            [
              32
            ],
            [
              41
            ]
          ]
        },
        {
          "required": true,
          "single": true,
          "synonyms": [
            [
              31
            ],
            [
              1
            ],
            [
              24
            ],
            [
              48
            ],
            [
              49
            ]
          ]
        }
      ]
    },
    {
      "id": 2,
      "groups": [
        {
          "required": false,
          "single": true,
          "synonyms": [
            [
              2,
              0
            ],
            [
              34
            ],
            [
              0
            ]
          ]
        },
        {
          "required": true,
          "single": true,
          "synonyms": [
            [
              43
            ],
            [
              13
            ],
            [
              29
            ],
            [
              30
            ],
            [
              42
            ],
            [
              44
            ],
            [
              46
            ],
            [
              56
            ]
          ]
        },
        {
          "required": true,
          "single": true,
          "synonyms": [
            [
              22
            ],
            [
              25
            ]
          ]
        }
      ]
    },
    {
      "id": 3,
      "groups": [
        {
          "required": false,
          "single": true,
          "synonyms": [
            [
              2,
              0
            ],
            [
              34
            ],
            [
              0
            ]
          ]
        },
        {
          "required": true,
          "single": true,
          "synonyms": [
            [
              13
            ],
            [
              29
            ],
            [
              42
            ],
            [
              44
            ],
            [
              46
            ]
          ]
        },
        {
          "required": true,
          "single": true,
          "synonyms": [
            [
              11
            ],
            [
              9
            ],
            [
              18
            ],
            [
              10
            ],
            [
              8
            ],
            [
              17
            ]
          ]
        }
      ]
    },
    {
      "id": 4,
      "groups": [
        {
          "required": false,
          "single": true,
          "synonyms": [
            [
              2,
              0
            ],
            [
              34
            ],
            [
              0
            ]
          ]
        },
        {
          "required": false,
          "single": true,
          "synonyms": [
            [
              19
            ],
            [
              23
            ],
            [
              50
            ],
            [
              54
            ]
          ]
        },
        {
          "required": true,
          "single": true,
          "synonyms": [
            [
              39
            ],
            [
              40
            ],
            [
              36
            ],
            [
              35
            ],
            [
              37
            ],
            [
              38
            ]
          ]
        }
      ]
    },
    {
      "id": 5,
      "groups": [
        {
          "required": false,
          "single": true,
          "synonyms": [
            [
              2,
              0
            ],
            [
              34
            ],
            [
              0
            ]
          ]
        },
        {
          "required": true,
          "single": true,
          "synonyms": [
            [
              47
            ],
            [
              45
            ]
          ]
        },
        {
          "required": true,
          "single": true,
          "synonyms": [
            [
              52
            ],
            [
              55
            ]
          ]
        }
      ]
    },
    {
      "id": 6,
      "groups": [
        {
          "required": true,
          "single": true,
          "synonyms": [
            [
              2,
              0
            ],
            [
              34
            ],
            [
              0
            ]
          ]
        },
        {
          "required": true,
          "single": true,
          "synonyms": [
            [
              16
            ],
            [
              21
            ],
            [
              29
            ]
          ]
        }
      ]
    }
  ],
  "ignore_group": {
    "required": false,
    "single": false,
    "synonyms": [
      [
        53
      ],
      [
        6
      ],
      [
        7
      ],
      [
        20
      ],
      [
        51
      ],
      [
        3
      ],
      [
        27
      ],
      [
        12
      ],
      [
        5
      ],
      [
        15
      ],
      [
        26
      ]
    ]
  },
  "max_tokens": 32
}